Division,WeightClassKg,Place,Name,Team,BodyweightKg,Best3SquatKg,Best3BenchKg,Best3DeadliftKg,TotalKg,Equipment,Event,Sex
Boys,51.71,1,Russell Wilcox,Leonard,49.71,142.88,61.23,145.15,349.27,Single-ply,SBD,M
Boys,51.71,2,Jonathan Esquivel,Melissa,51.62,124.74,74.84,136.08,335.66,Single-ply,SBD,M
Boys,55.79,3,Aditya Misra,Oakridge School,51.89,127.01,63.5,127.01,317.51,Single-ply,SBD,M
Boys,51.71,4,Exxon Pantaleon,Krum,50.44,108.86,56.7,138.35,303.91,Single-ply,SBD,M
Boys,55.79,5,Zack Miller,Ponder,51.94,117.93,56.7,127.01,301.64,Single-ply,SBD,M
Boys,51.71,6,Jordan Whiteside,Peaster,49.8,99.79,68.04,122.47,290.3,Single-ply,SBD,M
Boys,51.71,7,Justin Little,Strawn,48.9,104.33,63.5,113.4,281.23,Single-ply,SBD,M
Boys,51.71,8,Tinnin Smith,Jacksboro,50.08,113.4,63.5,104.33,281.23,Single-ply,SBD,M
Boys,51.71,DQ,Joey Salinas #1,Jacksboro,51.53,147.42,77.11,,,Single-ply,SBD,M
Boys,51.71,DQ,Steven Pham,Sunnyvale,51.35,,,,,Single-ply,SBD,M
Boys,59.87,1,Stephen Nelson,Pottsboro,55.88,163.29,97.52,172.37,433.18,Single-ply,SBD,M
Boys,55.79,2,Weston Decker,Peaster,55.34,149.69,88.45,172.37,410.5,Single-ply,SBD,M
Boys,55.79,3,Coleman Chance,Ponder,54.88,158.76,77.11,172.37,408.23,Single-ply,SBD,M
Boys,55.79,4,Trevor Richard,Chico,55.16,127.01,81.65,163.29,371.95,Single-ply,SBD,M
Boys,59.87,5,Thein Tran,Sunnyvale,56.02,124.74,58.97,133.81,317.51,Single-ply,SBD,M
Boys,59.87,6,Evan Norlie,Sunnyvale,56.02,68.04,56.7,108.86,233.6,Single-ply,SBD,M
Boys,55.79,NS,John Jennings,Nocona,,,,,,Single-ply,SBD,M
Boys,59.87,1,Jd Franke,Henrietta,59.69,219.99,113.4,192.78,526.17,Single-ply,SBD,M
Boys,59.87,2,Taylor Ross,Nocona,58.97,149.69,97.52,179.17,426.38,Single-ply,SBD,M
Boys,59.87,3,Christian Farr,Henrietta,59.6,158.76,95.25,172.37,426.38,Single-ply,SBD,M
Boys,59.87,4,Brandon Gee,Ponder,59.06,165.56,92.99,161.03,419.57,Single-ply,SBD,M
Boys,59.87,5,Ivan Karabanoff,Peaster,58.79,142.88,79.38,165.56,387.82,Single-ply,SBD,M
Boys,67.13,6,Gio Soto,Leonard,60.1,142.88,88.45,142.88,374.21,Single-ply,SBD,M
Boys,59.87,7,Dylan Hooper,Oakridge School,59.69,138.35,65.77,149.69,353.8,Single-ply,SBD,M
Boys,59.87,8,Austin Caldwell,Callisburg,57.52,138.35,68.04,140.61,347,Single-ply,SBD,M
Boys,59.87,9,Andrew Mangum,Wichita Falls City View,59.6,95.25,61.23,151.95,308.44,Single-ply,SBD,M
Boys,59.87,DQ,Romario Hernandez,Krum,59.42,149.69,79.38,,,Single-ply,SBD,M
Boys,67.13,1,Garrett Syfert,Pottsboro,66.22,219.99,122.47,208.65,551.11,Single-ply,SBD,M
Boys,74.84,2,Zane Schrader,Olney,67.22,197.31,108.86,188.24,494.42,Single-ply,SBD,M
Boys,67.13,3,Stephen Steele,Pottsboro,64.23,181.44,113.4,181.44,476.27,Single-ply,SBD,M
Boys,67.13,4,Kyle Garner,Gunter,64.95,176.9,106.59,174.63,458.13,Single-ply,SBD,M
Boys,67.13,5,Kelton Dethloff,Paradise,65.14,197.31,83.91,172.37,453.59,Single-ply,SBD,M
Boys,67.13,6,Mason Thompson,Whitewright,64.5,181.44,95.25,154.22,430.91,Single-ply,SBD,M
Boys,67.13,7,Trevor Bell,Sunnyvale,66.04,176.9,79.38,172.37,428.64,Single-ply,SBD,M
Boys,67.13,8,Jordan McConnell,Paradise,63.05,167.83,88.45,158.76,415.04,Single-ply,SBD,M
Boys,67.13,NS,Joaquin Lopez,Howe,,,,,,Single-ply,SBD,M
Boys,67.13,DQ,Ian Concepcion,Krum,63.32,174.63,72.57,,,Single-ply,SBD,M
Boys,74.84,1,Tri Hoang,Wichita Falls City View,72.12,224.53,106.59,260.82,591.94,Single-ply,SBD,M
Boys,74.84,2,Brennan Sooter,Ponder,73.57,244.94,131.54,213.19,589.67,Single-ply,SBD,M
Boys,74.84,3,Norman James,Wichita Falls City View,74.39,238.14,149.69,201.85,589.67,Single-ply,SBD,M
Boys,74.84,4,James Jackson #4,Callisburg,72.39,210.92,136.08,226.8,573.79,Single-ply,SBD,M
Boys,74.84,5,Daniel Grubbs,Collinsville,73.94,208.65,136.08,208.65,553.38,Single-ply,SBD,M
Boys,82.1,6,Randy Tucker,Perrin-Whitt,75.02,215.46,117.93,204.12,537.51,Single-ply,SBD,M
Boys,82.1,7,Victor Velazquez,Chico,75.07,204.12,104.33,217.72,526.17,Single-ply,SBD,M
Boys,74.84,8,Brayden Frank,Oakridge School,72.57,197.31,127.01,188.24,512.56,Single-ply,SBD,M
Boys,74.84,9,Abdul Khalaf,Sunnyvale,72.48,183.7,115.67,188.24,487.61,Single-ply,SBD,M
Boys,74.84,10,Seth Rogers,Jacksboro,72.57,181.44,122.47,183.7,487.61,Single-ply,SBD,M
Boys,82.1,1,OShae Nolan,Wichita Falls City View,81.28,244.94,117.93,229.06,591.94,Single-ply,SBD,M
Boys,82.1,2,Ramon Salazar,Jacksboro,81.01,235.87,133.81,213.19,582.87,Single-ply,SBD,M
Boys,82.1,3,Clay McKenzie,Callisburg,80.47,199.58,115.67,229.06,544.31,Single-ply,SBD,M
Boys,82.1,4,Cody Jones,Ponder,78.47,208.65,111.13,213.19,532.97,Single-ply,SBD,M
Boys,82.1,5,Lucas D'Agostino,Oakridge School,80.92,190.51,122.47,215.46,528.44,Single-ply,SBD,M
Boys,82.1,6,Josh McDowell,Paradise,75.48,215.46,108.86,199.58,523.9,Single-ply,SBD,M
Boys,82.1,7,Luis Erives,Sadler S & S Cons,79.92,181.44,113.4,226.8,521.63,Single-ply,SBD,M
Boys,82.1,8,Blaze Lynn,Electra,79.56,181.44,117.93,208.65,508.02,Single-ply,SBD,M
Boys,82.1,9,Dustin Richards,Krum,78.02,174.63,111.13,213.19,498.95,Single-ply,SBD,M
Boys,82.1,10,Chance Bratcher,Sadler S & S Cons,81.37,204.12,115.67,176.9,496.68,Single-ply,SBD,M
Boys,82.1,DQ,Michael Williams,Dallas Life Oak Cliff,80.01,215.46,133.81,,,Single-ply,SBD,M
Boys,82.1,DQ,Michael Williams,Dallas Life Oak Cliff,80.01,215.46,133.81,,,Single-ply,SBD,M
Boys,89.81,1,Anthony Garcia,Wichita Falls City View,87.18,249.48,129.27,247.21,625.96,Single-ply,SBD,M
Boys,89.81,2,Ivan Garcia #2,Peaster,87.63,238.14,161.03,224.53,623.69,Single-ply,SBD,M
Boys,89.81,3,David Kennedy,Oakridge School,86.45,199.58,127.01,231.33,557.92,Single-ply,SBD,M
Boys,89.81,4,Jeffery McClinton,Callisburg,87.72,213.19,111.13,231.33,555.65,Single-ply,SBD,M
Boys,89.81,5,Luke Bowling,Santo,85.09,215.46,113.4,210.92,539.77,Single-ply,SBD,M
Boys,89.81,6,Jarrett Roper,Paradise,88,201.85,133.81,185.97,521.63,Single-ply,SBD,M
Boys,89.81,NS,Eduardo Webber,Howe,,,,,,Single-ply,SBD,M
Boys,89.81,DQ,Brandon Thompson,Jacksboro,84.46,,,,,Single-ply,SBD,M
Boys,89.81,DQ,Tyler Cobb,Paradise,85.46,,,,,Single-ply,SBD,M
Boys,89.81,DQ,Taylor Edwards,Paradise,84.73,,,,,Single-ply,SBD,M
Boys,99.79,1,Jorden Molina,Olney,97.07,254.01,147.42,254.01,655.44,Single-ply,SBD,M
Boys,99.79,2,Javier Jaramillo,Honey Grove,98.88,210.92,124.74,229.06,564.72,Single-ply,SBD,M
Boys,99.79,3,Ej Lozado,Jacksboro,96.34,219.99,111.13,229.06,560.19,Single-ply,SBD,M
Boys,99.79,4,Alex Lovelady,Pottsboro,94.35,229.06,120.2,208.65,557.92,Single-ply,SBD,M
Boys,99.79,5,Justin Lawler,Pottsboro,98.43,231.33,124.74,190.51,546.58,Single-ply,SBD,M
Boys,99.79,6,Caiden Fenoglio,Nocona,91.63,201.85,136.08,206.38,544.31,Single-ply,SBD,M
Boys,99.79,7,Dawson Stewart,Howe,95.8,188.24,117.93,235.87,542.04,Single-ply,SBD,M
Boys,99.79,8,Stephen Plowman,Gordon,94.71,204.12,129.27,201.85,535.24,Single-ply,SBD,M
Boys,99.79,9,Jordan Carter,Paradise,90.54,215.46,124.74,192.78,532.97,Single-ply,SBD,M
Boys,99.79,10,Justin Silva,Wichita Falls City View,93.98,192.78,111.13,206.38,510.29,Single-ply,SBD,M
Boys,109.77,1,Joseph Costa,Henrietta,104.87,267.62,151.95,201.85,621.42,Single-ply,SBD,M
Boys,109.77,2,David Whited,Wichita Falls City View,107.77,260.82,136.08,199.58,596.47,Single-ply,SBD,M
Boys,124.74,3,Dillon Gage,Sadler S & S Cons,110,215.46,165.56,208.65,589.67,Single-ply,SBD,M
Boys,109.77,4,Eber Hernandez,Sadler S & S Cons,107.68,222.26,127.01,231.33,580.6,Single-ply,SBD,M
Boys,109.77,5,Dj Hollis,Melissa,101.06,210.92,147.42,206.38,564.72,Single-ply,SBD,M
Boys,109.77,6,Austin Williamson,Jacksboro,101.6,215.46,133.81,181.44,530.7,Single-ply,SBD,M
Boys,109.77,7,Billy Doyle,Pottsboro,103.33,213.19,113.4,199.58,526.17,Single-ply,SBD,M
Boys,109.77,8,Chris Aivaliotis,Ponder,105.14,213.19,113.4,181.44,508.02,Single-ply,SBD,M
Boys,109.77,9,Colton Richards,Krum,105.41,226.8,104.33,172.37,503.49,Single-ply,SBD,M
Boys,109.77,10,Grant Johnson,Oakridge School,107.32,190.51,102.06,206.38,498.95,Single-ply,SBD,M
Boys,124.74,1,Damon Hinrichs,Millsap,114.94,299.37,190.51,226.8,716.68,Single-ply,SBD,M
Boys,124.74+,2,Miguel Garcia,Blue Ridge,124.96,254.01,149.69,260.82,664.51,Single-ply,SBD,M
Boys,124.74,3,Parker West,Henrietta,119.02,251.74,151.95,188.24,591.94,Single-ply,SBD,M
Boys,124.74,4,Tanner Caraway,Whitewright,110.4,195.04,120.2,181.44,496.68,Single-ply,SBD,M
Boys,124.74,NS,Quinton Carroll,Dallas Life Oak Cliff,,,,,,Single-ply,SBD,M
Boys,124.74,NS,Tru Vang,Boyd,,,,,,Single-ply,SBD,M
Boys,124.74,NS,Stephen Slider,Bells,,,,,,Single-ply,SBD,M
Boys,124.74,NS,Quinton Carroll,Dallas Life Oak Cliff,,,,,,Single-ply,SBD,M
Boys,124.74,NS,Adam Williams #5,Melissa,,,,,,Single-ply,SBD,M
Boys,124.74,DQ,Dan Bluitt,Dallas Life Oak Cliff,121.2,229.06,,,,Single-ply,SBD,M
Boys,124.74,DQ,Dan Bluitt,Dallas Life Oak Cliff,121.2,229.06,,,,Single-ply,SBD,M
Boys,124.74+,1,Jacob Barton,Callisburg,125.1,292.57,190.51,251.74,734.82,Single-ply,SBD,M
Boys,124.74+,2,Jeffery Cooley,Jacksboro,132.18,251.74,136.08,215.46,603.28,Single-ply,SBD,M
Boys,124.74+,3,Jt McGuire,Olney,139.07,226.8,138.35,229.06,594.21,Single-ply,SBD,M
Boys,124.74+,4,Matt Tucker,Jacksboro,125.55,229.06,129.27,204.12,562.45,Single-ply,SBD,M
Boys,124.74+,5,Cameron Adkins,Leonard,127.55,226.8,120.2,199.58,546.58,Single-ply,SBD,M
Boys,124.74+,6,Zach Graham,Nocona,139.53,213.19,117.93,192.78,523.9,Single-ply,SBD,M
Boys,124.74+,7,Anthony Flores,Wichita Falls City View,141.52,181.44,81.65,176.9,439.98,Single-ply,SBD,M
Boys,124.74+,8,Luke Miller,Paradise,137.53,190.51,90.72,142.88,424.11,Single-ply,SBD,M
Boys,124.74+,9,Jacob Halbardier,Whitewright,157.67,172.37,81.65,,254.01,Single-ply,SB,M
Boys,124.74+,DQ,Dempsey Dorris,Strawn,137.53,,,,,Single-ply,SB,M
Boys,124.74+,DQ,Zack Hetrick,Strawn,125.19,217.72,,,,Single-ply,SB,M
