Division,WeightClassKg,Place,Name,Team,BodyweightKg,Best3SquatKg,Best3BenchKg,Best3DeadliftKg,TotalKg,Equipment,Event,Sex
Boys,51.71,1,Ricardo Rodriguez,Athens,50.17,129.27,79.38,138.35,347,Single-ply,SBD,M
Boys,51.71,2,Braydon Mason,Troup,49.44,122.47,58.97,115.67,297.1,Single-ply,SBD,M
Boys,51.71,3,Victor Solis,Beckville,49.62,102.06,54.43,122.47,278.96,Single-ply,SBD,M
Boys,51.71,4,Colton Lewis,Lindale,48.17,95.25,58.97,106.59,260.82,Single-ply,SBD,M
Boys,55.79,1,Jose Rodriguez #2,Athens,54.61,170.1,113.4,156.49,439.98,Single-ply,SBD,M
Boys,55.79,2,Jakovan Williams,Nacogdoches,53.89,113.4,68.04,154.22,335.66,Single-ply,SBD,M
Boys,55.79,3,David Blackwell,Nacogdoches,55.79,133.81,52.16,122.47,308.44,Single-ply,SBD,M
Boys,55.79,4,Jake Rasberry,Troup,54.88,111.13,56.7,117.93,285.76,Single-ply,SBD,M
Boys,55.79,5,Rahmen Mitchell,Beckville,54.52,104.33,65.77,113.4,283.5,Single-ply,SBD,M
Boys,59.87,1,Kentrun Pemberton,Texarkana Texas,56.52,174.63,108.86,158.76,442.25,Single-ply,SBD,M
Boys,59.87,2,Ja'Vontay Williams,Nacogdoches,59.87,167.83,79.38,181.44,428.64,Single-ply,SBD,M
Boys,59.87,3,Brooks Conlee,Bullard,59.78,156.49,83.91,185.97,426.38,Single-ply,SBD,M
Boys,59.87,4,Colby Green,Bullard,59.69,174.63,86.18,149.69,410.5,Single-ply,SBD,M
Boys,59.87,5,Camron King,Marshall,56.79,165.56,63.5,142.88,371.95,Single-ply,SBD,M
Boys,59.87,6,Trenton Burke,Troup,58.06,154.22,81.65,136.08,371.95,Single-ply,SBD,M
Boys,59.87,7,Hunter Miller,Bullard,58.42,136.08,68.04,120.2,324.32,Single-ply,SBD,M
Boys,67.13,1,Bryce Wilkerson,Tyler Lee,62.87,190.51,92.99,183.7,467.2,Single-ply,SBD,M
Boys,67.13,2,Justin Vanderwater,Laird Hill Leveretts Chapel,62.14,176.9,108.86,179.17,464.93,Single-ply,SBD,M
Boys,67.13,3,Javonte Parker,Marshall,63.96,179.17,95.25,190.51,464.93,Single-ply,SBD,M
Boys,74.84,4,Kevin Jackson,Marshall,67.31,174.63,90.72,174.63,439.98,Single-ply,SBD,M
Boys,67.13,5,Nathan Evans,Lindale,65.59,156.49,95.25,183.7,435.45,Single-ply,SBD,M
Boys,74.84,6,Patrick Crowder,Tyler Lee,67.22,147.42,74.84,170.1,392.36,Single-ply,SBD,M
Boys,67.13,7,Jaden Whitely,Nacogdoches,62.6,142.88,81.65,158.76,383.29,Single-ply,SBD,M
Boys,67.13,8,Graham Young,Bullard,63.41,147.42,88.45,138.35,374.21,Single-ply,SBD,M
Boys,74.84,9,Chavis Mills,Marshall,67.31,122.47,90.72,151.95,365.14,Single-ply,SBD,M
Boys,67.13,10,Drake Daley,Bullard,66.13,136.08,68.04,149.69,353.8,Single-ply,SBD,M
Boys,67.13,11,Osbablo Juarez,Athens,65.68,138.35,72.57,140.61,351.53,Single-ply,SBD,M
Boys,67.13,12,Cade Wood,Bullard,66.77,117.93,81.65,129.27,328.85,Single-ply,SBD,M
Boys,67.13,13,Chris Wood #4,Bullard,64.68,122.47,72.57,127.01,322.05,Single-ply,SBD,M
Boys,67.13,14,Matt Whipkey,Lindale,64.59,115.67,56.7,122.47,294.84,Single-ply,SBD,M
Boys,67.13,15,Zach Tollett,Troup,60.42,106.59,74.84,108.86,290.3,Single-ply,SBD,M
Boys,67.13,16,Tanner Griffith,Bullard,64.95,104.33,61.23,111.13,276.69,Single-ply,SBD,M
Boys,67.13,DQ,Edgar Simmons,Marshall,65.59,199.58,,,,Single-ply,SBD,M
Boys,67.13,DQ,Ty Howell,Troup,61.05,136.08,,,,Single-ply,SBD,M
Boys,67.13,DQ,Corey Bonner,Troup,60.51,133.81,,,,Single-ply,SBD,M
Boys,74.84,1,James Seekford,Lindale,68.4,206.38,108.86,204.12,519.36,Single-ply,SBD,M
Boys,82.1,2,Austin Skelton,Bullard,75.02,190.51,113.4,210.92,514.83,Single-ply,SBD,M
Boys,74.84,3,Diondre Allen,Tyler Lee,70.49,190.51,104.33,190.51,485.34,Single-ply,SBD,M
Boys,74.84,4,Travis Johnson,Tyler Chapel Hill,72.85,181.44,104.33,195.04,480.81,Single-ply,SBD,M
Boys,74.84,5,Matthew Morris,Laird Hill Leveretts Chapel,72.12,192.78,99.79,181.44,474,Single-ply,SBD,M
Boys,82.1,6,Caleb Bragg,Tyler Chapel Hill,75.02,172.37,117.93,181.44,471.74,Single-ply,SBD,M
Boys,74.84,7,Connor Mebane,Bullard,73.84,188.24,90.72,174.63,453.59,Single-ply,SBD,M
Boys,82.1,8,Desmond Dunn,Tyler Lee,75.02,170.1,102.06,174.63,446.79,Single-ply,SBD,M
Boys,74.84,9,Jalon Mitchell,Marshall,74.03,172.37,88.45,183.7,444.52,Single-ply,SBD,M
Boys,74.84,10,Jacorian Walker,Texarkana Texas,68.58,172.37,97.52,172.37,442.25,Single-ply,SBD,M
Boys,74.84,11,Brandon Jones #9,Nacogdoches,74.39,149.69,99.79,181.44,430.91,Single-ply,SBD,M
Boys,74.84,12,Tony Sanchez,Van,71.12,154.22,99.79,156.49,410.5,Single-ply,SBD,M
Boys,74.84,13,Micahh Smith,Marshall,71.58,149.69,70.31,188.24,408.23,Single-ply,SBD,M
Boys,74.84,14,Deunta Johnson,Marshall,72.12,145.15,90.72,167.83,403.7,Single-ply,SBD,M
Boys,74.84,15,Hunter Delcambre,Nacogdoches,72.12,147.42,74.84,145.15,367.41,Single-ply,SBD,M
Boys,74.84,16,Michael Beldsoe,Tyler,72.39,138.35,79.38,136.08,353.8,Single-ply,SBD,M
Boys,74.84,17,Micah Hughes #3,Bullard,73.48,136.08,79.38,136.08,351.53,Single-ply,SBD,M
Boys,82.1,18,Tavorian Pellum,Beckville,74.93,124.74,99.79,127.01,351.53,Single-ply,SBD,M
Boys,74.84,19,Jacob Moore,Lindale,74.39,131.54,72.57,142.88,347,Single-ply,SBD,M
Boys,74.84,20,Jacari Reed,Beckville,71.67,108.86,77.11,106.59,292.57,Single-ply,SBD,M
Boys,74.84,DQ,Houston Alexander,Bullard,74.75,,,,,Single-ply,SBD,M
Boys,74.84,DQ,Blake Narrell,Troup,74.03,174.63,104.33,,,Single-ply,SBD,M
Boys,74.84,DQ,John Cook,Beckville,69.4,92.99,,,,Single-ply,SBD,M
Boys,82.1,1,Adam Galaz,Lindale,75.93,226.8,136.08,229.06,591.94,Single-ply,SBD,M
Boys,89.81,2,Chris Hancock,Tyler Chapel Hill,82.28,226.8,122.47,233.6,582.87,Single-ply,SBD,M
Boys,89.81,3,Zach Holladay,Bullard,82.19,215.46,136.08,229.06,580.6,Single-ply,SBD,M
Boys,82.1,4,Aaron Johnson #13,Bullard,79.74,217.72,115.67,206.38,539.77,Single-ply,SBD,M
Boys,82.1,5,Nolan Allen,Marshall,75.66,226.8,113.4,192.78,532.97,Single-ply,SBD,M
Boys,82.1,6,Jesse Mumphrey,Tyler Chapel Hill,77.11,197.31,108.86,215.46,521.63,Single-ply,SBD,M
Boys,82.1,7,Felipe Amaro,Laird Hill Leveretts Chapel,80.1,215.46,120.2,181.44,517.1,Single-ply,SBD,M
Boys,82.1,8,Alberto Martinez,Athens,78.11,170.1,129.27,170.1,469.47,Single-ply,SBD,M
Boys,82.1,9,Patrick Udofia,Tyler Lee,78.02,174.63,106.59,183.7,464.93,Single-ply,SBD,M
Boys,82.1,10,Jacob Hanson,Marshall,79.2,174.63,108.86,172.37,455.86,Single-ply,SBD,M
Boys,82.1,11,Dre'Tarious Chavis,Athens,76.57,163.29,106.59,181.44,451.32,Single-ply,SBD,M
Boys,82.1,12,Drake Murry,Marshall,76.11,165.56,97.52,179.17,442.25,Single-ply,SBD,M
Boys,82.1,13,Ryan Robinson,Lindale,77.66,174.63,102.06,163.29,439.98,Single-ply,SBD,M
Boys,82.1,14,Ethan Molnari,Troup,82.01,163.29,104.33,170.1,437.72,Single-ply,SBD,M
Boys,82.1,15,Chase Houston,Lindale,80.74,167.83,90.72,176.9,435.45,Single-ply,SBD,M
Boys,82.1,16,Mitchell Leonard,Marshall,75.48,156.49,92.99,183.7,433.18,Single-ply,SBD,M
Boys,82.1,17,Mason Wood,Lindale,81.19,167.83,99.79,158.76,426.38,Single-ply,SBD,M
Boys,82.1,18,Tristan Ford,Van,75.66,165.56,97.52,156.49,419.57,Single-ply,SBD,M
Boys,82.1,19,Austin Russell,Jacksonville,80.2,140.61,90.72,176.9,408.23,Single-ply,SBD,M
Boys,82.1,20,Cordell Archield,Marshall,79.74,136.08,92.99,163.29,392.36,Single-ply,SBD,M
Boys,82.1,21,LaQuintas Day,Jacksonville,78.83,140.61,106.59,142.88,390.09,Single-ply,SBD,M
Boys,82.1,22,Jacob DeHart,Lindale,81.65,111.13,65.77,133.81,310.71,Single-ply,SBD,M
Boys,82.1,23,Mark Overman,Laird Hill Leveretts Chapel,81.56,61.23,124.74,61.23,247.21,Single-ply,SBD,M
Boys,82.1,DQ,Tommy Simmons,Jacksonville,77.84,129.27,95.25,,,Single-ply,SBD,M
Boys,82.1,DQ,Barney Harris,Tyler Lee,81.37,172.37,102.06,,,Single-ply,SBD,M
Boys,89.81,1,Gilberto Jimenez,Bullard,88,240.4,158.76,217.72,616.89,Single-ply,SBD,M
Boys,89.81,2,Shawn Smith,Nacogdoches,87.82,240.4,124.74,240.4,605.55,Single-ply,SBD,M
Boys,89.81,3,Fabi Molina,Lindale,88.63,201.85,124.74,213.19,539.77,Single-ply,SBD,M
Boys,89.81,4,Harold Stoker,Texarkana Texas,86.82,192.78,129.27,199.58,521.63,Single-ply,SBD,M
Boys,89.81,5,Tillman Morgan,Tyler,88.72,142.88,120.2,199.58,462.66,Single-ply,SBD,M
Boys,89.81,6,Berrett Senycki,Athens,85.18,158.76,106.59,179.17,444.52,Single-ply,SBD,M
Boys,89.81,7,Tucker Phillips,Bullard,84.73,174.63,97.52,170.1,442.25,Single-ply,SBD,M
Boys,89.81,8,James Payne,Nacogdoches,86.55,149.69,95.25,172.37,417.3,Single-ply,SBD,M
Boys,89.81,9,Andrew Dawson,Tyler Chapel Hill,87.54,170.1,72.57,172.37,415.04,Single-ply,SBD,M
Boys,89.81,10,Darrion Parks,Jacksonville,82.55,142.88,104.33,158.76,405.97,Single-ply,SBD,M
Boys,89.81,11,Wesley Tavon,Tyler Lee,83.1,158.76,83.91,163.29,405.97,Single-ply,SBD,M
Boys,89.81,12,Andrew Lemonds,Van,88.72,136.08,97.52,154.22,387.82,Single-ply,SBD,M
Boys,89.81,13,Brice Walker,Lindale,87.91,129.27,92.99,154.22,376.48,Single-ply,SBD,M
Boys,89.81,14,David Duran,Jacksonville,88.63,79.38,72.57,127.01,278.96,Single-ply,SBD,M
Boys,99.79,1,Delenis Garrett,Lindale,94.53,242.67,145.15,195.04,582.87,Single-ply,SBD,M
Boys,99.79,2,Corey Lowe,Texarkana Texas,92.53,217.72,124.74,231.33,573.79,Single-ply,SBD,M
Boys,99.79,3,Gonzalo Arreguin,Tyler Chapel Hill,96.43,206.38,138.35,222.26,566.99,Single-ply,SBD,M
Boys,99.79,4,Dorian Schutt,Bullard,99.61,204.12,124.74,201.85,530.7,Single-ply,SBD,M
Boys,99.79,5,Landon Wright,Lindale,92.17,208.65,120.2,197.31,526.17,Single-ply,SBD,M
Boys,99.79,6,Dameon Kennedy,Tyler Chapel Hill,97.61,199.58,131.54,188.24,519.36,Single-ply,SBD,M
Boys,99.79,7,Tarik Hill,Texarkana Texas,97.89,204.12,115.67,190.51,510.29,Single-ply,SBD,M
Boys,99.79,8,Jassiva Reese,Tyler,94.89,181.44,97.52,226.8,505.76,Single-ply,SBD,M
Boys,99.79,9,Jessie Harris,Laird Hill Leveretts Chapel,94.26,190.51,104.33,188.24,483.08,Single-ply,SBD,M
Boys,99.79,10,Zach Willeford,Nacogdoches,94.08,181.44,92.99,185.97,460.4,Single-ply,SBD,M
Boys,99.79,11,Myles Morgan,Lindale,95.98,172.37,113.4,174.63,460.4,Single-ply,SBD,M
Boys,99.79,12,Alex Gavin,Nacogdoches,99.06,179.17,95.25,167.83,442.25,Single-ply,SBD,M
Boys,99.79,13,Tyler Segrest,Lindale,93.44,154.22,95.25,156.49,405.97,Single-ply,SBD,M
Boys,99.79,14,Otis McMillan,Tyler,94.35,147.42,90.72,158.76,396.89,Single-ply,SBD,M
Boys,99.79,15,Jake Langston,Bullard,98.25,140.61,83.91,154.22,378.75,Single-ply,SBD,M
Boys,99.79,DQ,Jacob Adams,Lindale,98.7,131.54,65.77,,,Single-ply,SBD,M
Boys,99.79,DQ,Andrew Williamson,Beckville,99.61,117.93,,,,Single-ply,SBD,M
Boys,99.79,DQ,Andrew Chirwa,Texarkana Texas,91.9,247.21,,,,Single-ply,SBD,M
Boys,109.77,1,Stetson Farrell,Lindale,107.41,260.82,172.37,213.19,646.37,Single-ply,SBD,M
Boys,109.77,2,De'Andre Miller,Tyler,109.13,231.33,145.15,219.99,596.47,Single-ply,SBD,M
Boys,109.77,3,Etim Asangansi,Tyler Lee,103.87,215.46,131.54,210.92,557.92,Single-ply,SBD,M
Boys,109.77,4,Amier Wilson,Tyler Lee,107.68,192.78,122.47,226.8,542.04,Single-ply,SBD,M
Boys,109.77,5,Caleb Hallford,Bullard,106.14,213.19,136.08,183.7,532.97,Single-ply,SBD,M
Boys,109.77,6,Zac Verhalen,Nacogdoches,101.15,192.78,127.01,201.85,521.63,Single-ply,SBD,M
Boys,109.77,7,Jaylon Reese,Tyler,102.33,188.24,113.4,215.46,517.1,Single-ply,SBD,M
Boys,109.77,8,Tyler Trussell,Athens,101.79,197.31,111.13,206.38,514.83,Single-ply,SBD,M
Boys,109.77,9,Antonio Washington,Marshall,101.88,217.72,102.06,195.04,514.83,Single-ply,SBD,M
Boys,109.77,10,Seth Loftin,Van,107.86,185.97,124.74,195.04,505.76,Single-ply,SBD,M
Boys,109.77,11,Cody Forbes,Marshall,108.23,192.78,104.33,188.24,485.34,Single-ply,SBD,M
Boys,109.77,12,Zaylon Williams,Tyler,108.32,208.65,117.93,158.76,485.34,Single-ply,SBD,M
Boys,109.77,13,Xavier Matthews,Jacksonville,109.5,197.31,102.06,170.1,469.47,Single-ply,SBD,M
Boys,109.77,14,David Molina,Bullard,102.87,174.63,92.99,195.04,462.66,Single-ply,SBD,M
Boys,109.77,15,Nick Mayfield,Tyler,109.59,185.97,111.13,158.76,455.86,Single-ply,SBD,M
Boys,109.77,16,Cameron Fleming,Lindale,109.41,181.44,99.79,172.37,453.59,Single-ply,SBD,M
Boys,109.77,17,Jose Ramirez #6,Lindale,104.14,183.7,79.38,172.37,435.45,Single-ply,SBD,M
Boys,109.77,18,Chad Walker #2,Athens,106.41,172.37,95.25,154.22,421.84,Single-ply,SBD,M
Boys,109.77,19,Grant Burns,Texarkana Texas,102.24,165.56,86.18,147.42,399.16,Single-ply,SBD,M
Boys,109.77,20,Joey Gray,Troup,103.06,154.22,83.91,136.08,374.21,Single-ply,SBD,M
Boys,109.77,21,C Ninemire,Beckville,105.23,129.27,74.84,136.08,340.19,Single-ply,SBD,M
Boys,109.77,22,Osacr Mendoza,Jacksonville,100.06,111.13,92.99,117.93,322.05,Single-ply,SBD,M
Boys,109.77,DQ,William Hults,Tyler Lee,106.96,,,,,Single-ply,SBD,M
Boys,124.74,1,Justin Lewis,Texarkana Texas,117.93,288.03,163.29,251.74,703.07,Single-ply,SBD,M
Boys,124.74,2,Shane Armstrong,Beckville,114.03,199.58,151.95,233.6,585.13,Single-ply,SBD,M
Boys,124.74,3,Brian Gutierrez,Athens,116.39,217.72,147.42,201.85,566.99,Single-ply,SBD,M
Boys,124.74,4,Adrian Pulido,Tyler,119.75,219.99,117.93,210.92,548.85,Single-ply,SBD,M
Boys,124.74,5,Katrail Flanagan,Marshall,117.12,215.46,124.74,199.58,539.77,Single-ply,SBD,M
Boys,124.74,6,Max DeLahoya,Lindale,112.67,208.65,113.4,208.65,530.7,Single-ply,SBD,M
Boys,124.74,7,Ivan Monzon,Marshall,115.8,197.31,120.2,183.7,501.22,Single-ply,SBD,M
Boys,124.74,8,Zach Watkins,Lindale,120.75,183.7,104.33,167.83,455.86,Single-ply,SBD,M
Boys,124.74+,9,Terrell Williams,Jacksonville,124.92,174.63,104.33,154.22,433.18,Single-ply,SBD,M
Boys,124.74+,1,John Arellano,Athens,130.82,272.16,158.76,238.14,669.05,Single-ply,SBD,M
Boys,124.74+,2,Cedric Jones,Marshall,139.39,199.58,113.4,176.9,489.88,Single-ply,SBD,M
Boys,124.74+,3,Jaylon White,Troup,181.44,127.01,92.99,120.2,340.19,Single-ply,SBD,M
Boys,124.74+,DQ,De'Leon Cravens,Tyler,144.15,,,,,Single-ply,SBD,M
